{
  "home": "Accueil",
  "general_informations": "Informations générales",
  "action_plan": "Plan d’action",
  "watch_and_news": "Veille et Actualités",
  "documents_and_templates": "Documents et Modèles",
  "page_not_found": "Page not found",
  "required": "Obligatoire",
  "only_letters_are_allowed_for_this_field": "Seules les lettres sont autorisées pour ce champ",
  "must_be_9_characters": "Doit contenir 9 caractères",
  "must_be_5_characters": "Doit contenir 5 caractères",
  "invalid_email_address": "Adresse e-mail invalide",
  "to_start": "Commencer",
  "diagnostic": "Diagnostic",
  "sign_out": "Deconnexion",
  "before_starting_your_compliance": "Avant d’entreprendre votre mise en conformité, un audit de votre structure est essentiel afin d’identifier les écarts de conformité et d’établir un plan d’action pour remédier à ces manquements.",
  "dashboard": "Tableau de Bord",
  "the_dashboard_is_essential_for_your_compliance": "Le tableau de bord est essentiel pour votre conformité. Il vous permet de piloter votre démarche conformité, de répartir les tâches, de suivre l'avancement des actions, tout en étant un puissant outil d'aide à la décision.",
  "treatment_register": "Registre des Traitements",
  "the_principle_of_accountability_requires_you_to_demonstrate_your_compliance": "Le principe de responsabilisation ou d’accountability vous impose de démontrer votre conformité. La tenue d'un registre des traitements qui recense l'ensemble des traitements mis en œuvre par votre organisme. vous permet de remplir cette obligation.",
  "rights_of_individuals": "Droits des Personnes",
  "one_of_the_goals_of_the_GDPR_is_to_strengthen_the_rights_of_individuals_and_facilitate_their_exercise": "L’un des objectifs du  RGPD est de renforcer les droits des personnes et de faciliter leur exercice. En cas de demande d’exercice de droits, l’organisme dispose d’un mois pour répondre à la personne concernée. Une gestion des demandes est donc indispensable.",
  "project_management": "Gestion de Projets",
  "every_project_must_integrate": "Tout projet doit intégrer dès sa conception, par défaut et pendant tout sa durée, les exigences en matière de protection des données personnelles. Les projets doivent donc faire l'objet d'un suivi particulier.",
  "subcontracting": "Sous-traitance",
  "whether_you_use_subcontractors_or_you_yourself_are_a_subcontractor": "Que vous fassiez appel à des sous-traitants ou que vous soyez vous-même sous-traitant, vous vous devez de respecter le RGPD et les exigences prévues dans ces deux cas afin d'assurer une bulle de protection aux données personnelles que vous confiez ou traitez.",
  "company_name": "Nom de L’entreprise",
  "legal_representative": "Représentant légal",
  "address": "Adresse",
  "number_of_employees": "Nombre de salariés",
  "referent_personal_data_protection": "Referent protection des données personnelles",
  "siret": "Siret",
  "email_of_the_protection_referent": "Email du réferent protection",
  "naf_code": "Code NAF",
  "contact_details_of_the_data_protection_officer": "Coordonées du référent protection des données",
  "core_business": "Activité Principale",
  "record": "Enregister",
  "specify_if_it_is_a_Data_Protection_Officer": "Préciser s'il s'agit d'un Délégué à la protection des donnéesc",
  "new_diagnostic": "New diagnostic",
  "edit_diagnostic": "Edit diagnostic",
  "export_diagnostic": "Export diagnostic",
  "register": "Register",
  "continue": "Continuez",
  "export": "Export",
  "username": "Nom d'utilisateur",
  "email": "Email",
  "password": "Mot de passe",
  "confirmPassword": "Confirmez le mot de passe",
  "agree_to_be_contacted_/_receive_commercial_information": "Accepter d'être contacté / recevoir des informations commerciales",
  "both_password_need_to_be_the_same": "Les deux mots de passe doivent être identiques",
  "personal_data_protection_compliance_management": "Gestion de la Conformité à la Protection des Données Personnelles",
  "sign_up": "S'inscrire maintenant",
  "sign_in": "S'identifier",
  "congratulation": "Toutes nos félicitations",
  "you’ve_signed_up_successfully": "Vous vous êtes inscrit avec succès",
  "done": "Terminé",
  "the_terms_and_conditions_must_be_accepted.": "Les conditions générales doivent être acceptées.",
  "remember_me": "Rappelle-toi de moi",
  "forgot_password": "Mot de passe oublié",
  "type_your_email": "TAPEZ VOTRE EMAIL",
  "don’t_worry._enter_your_email_and_we_will_send_you_a_code_to_create_a_new_password": "Ne vous inquiétez pas. Entrez votre email et nous vous enverrons un code pour créer un nouveau mot de passe",
  "send": "ENVOYER",
  "reset_your_password": "RÉINITIALISER VOTRE MOT DE PASSE",
  "verification_code": "Code de vérification",
  "new_password": "Nouveau mot de passe",
  "confirm_new_password": "Confirmer le nouveau mot de passe",
  "your_new_password_has_been_created_successfully.": "Votre nouveau mot de passe a été créé avec succès.",
  "access": "Acceder",
  "reference": "Référence",
  "treatment": "Traitement",
  "primary_purpose": "Finalité Principale",
  "date_of_creation": "Date de création",
  "last_update": "Dernière mise à jour",
  "sensitive_data": "Donnees Sensibles",
  "create_a_treatment": "Creer un Traitement",
  "n_ref": "N/REF",
  "legal_basis": "Base Légale",
  "name_of_the_treatment": "Nom du traitement",
  "treatment_update": "Mise à jour du traitement",
  "date_of_creation_of_the_treatment": "Date de creation du traitement",
  "description_of_the_treatment": "Description du traitement",
  "actors": "Acteurs",
  "add_new_joint_manager": "Add new responsable conjont",
  "name": "Name",
  "first_name": "Prenom",
  "phone": "Telephone",
  "person_in_charge_of_the_treatment": "Responsable du traitement",
  "data_protection_officer": "Délégué à la protection des données (DPO)",
  "company_of_the_DPO": "Société du DPO (si celui-ci est externe)",
  "representative": "Représentant",
  "responsible_person_spouse": "Responsable Conjoint",
  "purpose(s)_of_the_processing_carried_out": "Finalité(s) du traitement effectué",
  "main_purpose": "Finalité principale",
  "sub-purpose": "Sous-finalité",
  "add_new_Sub-finality": "Add new Sous-finalité",
  "back": "Retour",
  "date": "Date",
  "by": "Par",
  "finalize": "Finaliser",
  "next": "Suivant",
  "generate_the_action_plan": "Generer le plan d’action",
  "global_result_of_RGPD_compliance_diagnosis": "Résultat global diagnostic de conformité RGPD",
  "general_information_update_successfully": "Mise à jour des informations générales réussie",
  "sub_goal": "Sous-finalité",
  "joint_manager": "Responsable conjont",
  "categories_of_personal_data_concerned": "Catégories de données personnelles concernées",
  "civil_status_identity_identification_data_images": "État civil, identité, données d'identification, images…",
  "personal_life_(lifestyle, family situation, etc.)": "Vie personnelle (habitudes de vie, situation familiale, etc.)",
  "economic_and_financial_information_(income, financial situation, tax situation, etc.)": "Informations d'ordre économique et financier (revenus, situation financière, situation fiscale, etc.)",
  "connection_data_(IP address, logs, etc.)": "Données de connexion (adress IP, logs, etc.)",
  "location_data_(movements, GPS data, GSM, etc.)": "Données de localisation (déplacements, données GPS, GSM, etc.)",
  "social_security_number": "Numéro de Sécurité Sociale",
  "data_revealing_racial_or_ethnic_origin": "Données révélant l'origine raciale ou ethnique",
  "data_revealing_political_opinions": "Données révélant les opinions politiques",
  "data_revealing_religious_or_philosophical_beliefs": "Données révélant les convictions religieuses ou philosophiques",
  "data_revealing_trade_union_membership": "Données révélant l'appartenance syndicale",
  "genetic_data": "Données génétiques",
  "biometric_data_for_the_purpose_of_uniquely_identifying_a_natural_person": "Données biométriques aux fins d'identifier une personne physique de manière unique",
  "data_concerning_health": "Données concernant la santé",
  "data_concerning_sexual_life_or_sexual_orientation": "Données concernant la vie sexuelle ou l'orientation sexuelle",
  "data_relating_to_criminal_convictions_or_offences": "Données relatives à des condamnations pénales ou  infractions",
  "security_measure": "Mesure de sécurité",
  "receiving_agency": "Organisme destinataire",
  "description": "Description",
  "shelf_life": "Durée de conservation",
  "type_of_security_measure": "Type de mesure de sécurité",
  "details": "Précisions",
  "recipient": "Destinataire",
  "type_of_guarantees": "Type de Garanties",
  "links_to_documentation": "Liens vers la documentation",
  "categories_of_people_involved": "Catégories de personnes concernées",
  "category_of_persons": "Catégorie de personnes",
  "type_of_recipient": "Type de destinataire",
  "treatment_identification": "Identification du traitement",
  "characteristics_of_the_treatment": "Caracteristiques du traitement",
  "persons_concerned": "Personnes concernees",
  "people_rights": "Droits des Personnes",
  "create_a_request": "Créer une demande",
  "nature_of_the_request": "Nature de la demande",
  "reception_channel": "Canal de reception",
  "service/Department_concerned": "Service/Departement concerne",
  "date_of_closure": "Date de clôture",
  "identity_of_the_person_concerned": "Identité de la personne concernée",
  "details_of_the_request": "Details de la Demande",
  "submit": "Soumettre",
  "processing_the_request": "Traitement de la demande",
  "treatment_concerned": "Traitement(s) concerné(s)",
  "no": "Non",
  "in_progress": "En Cours",
  "yes": "Oui",
  "postal_mail": "Courrier postal",
  "electronic_mail": "Courrer électronique",
  "online_form": "Formulaire en ligne",
  "date_of_reception_of_the_request": "Date de reception de la demande",
  "service_department_concerned": "Service department concerné",
  "description_of_the_request": "Description de la demande",
  "upload_a_file": "Télécharger un fichier",
  "receivable_request_(Yes/No)": "Demande Recevable (Oui/Non)",
  "finalized_action": "Action Finalé",
  "response_channel": "Canal dé la response",
  "internal_Communication": "Communication Interne",
  "right_of_access": "Droit d'accès",
  "right_of_access_tooltip": "La personne concernée ou son représentant légal souhaite savoir vous traitez des données la concernant et/ou en obtenir une copie",
  "right_of_rectification": "Droit de rectification",
  "right_of_rectification_tooltip": "La personne concernée ou son représentant légal souhaite corriger des données inexactes la concernant (adresse, orthographe nom, âge, etc.) et/ou compléter des informations (ex : adresse sans le numéro de l’appartement)",
  "right_of_opposition": "Droit d’opposition",
  "right_of_opposition_tooltip": "La personne concernée ou son représentant légal souhaite s'opposer à l’utilisation de ses données. Si vous utilisiez ces données à des fins de prospection commerciale la personne concernée n'a aucune justification à apporter au soutien de sa demande",
  "post_mortem_directives": "Directives post mortem",
  "post_mortem_directives_tooltip": "La personne concernée ou son représentant légal souhaite l'effacement des données la concernant",
  "right_to_portability": "Droit à la portabilité",
  "right_to_portability_tooltip": "La personne concernée ou son représentant légal souhaite gérer ses données en en obtenant une copie et/ou en vous demandant de les transmettre à un autre organisme",
  "right_to_limitation_of_processing": "Droit à la limitation du traitement",
  "right_to_limitation_of_processing_tooltip": "La personne concernée ou son représentant légal souhaite geler temporairement l’utilisation des données la concernant",
  "right_to_be_forgotten": "Droit à l’oubli",
  "right_to_be_forgotten_tooltip": "La personne concernée ou son représentant légal souhaite vous interdire d’utiliser ses données personnelles à des fins d’analyse et de prédiction de son comportement",
  "right_not_to_be_subject_to_an_automated_decision,_including_profiling": "Droit de ne pas faire l’objet d’une décision automatisée, y compris le profilage",
  "right_not_to_be_subject_to_an_automated_decision,_including_profiling_tooltip": "La personne concernée ou son représentant légal souhaite vous demander de prendre en considération le décès d’une personne dont elle sont héritières et/ou de procéder aux mises à jour nécessaires",
  "new_request": "Nouvelle demande",
  "need_help": "Besoin d’aide",
  "describe_your_question": "Formulez votre question",
  "need_more_information": "Besoin d'information supplémentaire? Prenez RDV ici",
  "tutorial": "Tutoriel"
}
